Digital Tech Ecosystems — Four-City Quant Analysis (Tallinn, Barcelona, Athens, Lisbon)
…
Takeaway. Even where funding intensity looks non-trivial for Athens/Lisbon, outcomes lag vs Tallinn/Barcelona. This supports the hypothesis: money alone doesn’t produce a digital tech ecosystem without effective regional policy and implementation capacity. The provenance notes keep our assumptions transparent (ES51 for Barcelona, EE00 for Tallinn).

5) City scoreboards (simple & transparent)

Method. For a digestible comparison, we build scoreboards on the latest overlapping year across cities for each core indicator and two funding intensity measures. Values are z‑scored to put different scales side-by-side (mean 0, sd 1 within the four cities).

# A tibble: 6,760 × 12
   city     year HighTech_Employment_regi…¹ HighTech_patents_reg…² GERD_regional
   <fct>   <int>                      <dbl>                  <dbl>         <dbl>
 1 Tallinn  2012                         NA                  0.271            NA
 2 Tallinn  2012                         NA                  3                NA
 3 Tallinn  2012                         NA                  5.29             NA
 4 Tallinn  2012                         NA                  0.241            NA
 5 Tallinn  2012                         NA                  2.67             NA
 6 Tallinn  2012                         NA                  4.71             NA
 7 Tallinn  2012                         NA                  0.422            NA
 8 Tallinn  2012                         NA                  4.67             NA
 9 Tallinn  2012                         NA                  8.24             NA
10 Tallinn  2012                         NA                  0.09             NA
# ℹ 6,750 more rows
# ℹ abbreviated names: ¹​HighTech_Employment_regional,
#   ²​HighTech_patents_regional
# ℹ 7 more variables: funding_to_gdp <dbl>, funding_per_emp <dbl>,
#   z_HighTech_Employment_regional <dbl>, z_HighTech_patents_regional <dbl>,
#   z_GERD_regional <dbl>, z_funding_to_gdp <dbl>, z_funding_per_emp <dbl>
…
